%YAML 1.1
%TAG !u! tag:unity3d.com,2011:
--- !u!162 &1
EditorUserSettings:
  m_ObjectHideFlags: 0
  serializedVersion: 4
  m_ConfigSettings:
    RecentlyUsedScenePath-0:
      value: 224247031146467a1e1d0936031c6f031f14173e292b28392e265200e1e53a3df1a802ecf42e2c730d07fc282d2d0936fa0b1b0ab81e04020517
      flags: 0
    RecentlyUsedScenePath-1:
      value: 224247031146467a1e1d0936031c6f031f14173e292b28392e265200e1e53a3df1a805e0ea2f333d3a0be032012d4e31f71d4918ff061f07100df4011fbf415d04cb11d103
      flags: 0
    RecentlyUsedScenePath-2:
      value: 224247031146467a1e1d0936031c6f031f14173e292b28392e265200e1e53a3df1a805e0ea2f333d3a0be032012d4e31f71d4918ff061f07100df4011fbf435d04cb11d103
      flags: 0
    RecentlyUsedScenePath-3:
      value: 224247031146467a1e1d0936031c6f031f14173e292b28392e265200e1e53a3df1a805e0ea2f333d3a0be032012d4e31f71d4918ff061f07100df4011fbf425d04cb11d103
      flags: 0
    RecentlyUsedScenePath-4:
      value: 224247031146467a1e1d0936031c6f031f14173e292b28392e265200e1e53a3df1a805e0ea2f333d3a0be032012d4e31f71d4918ff061f07100df4011fbf435310c90c8b0fc61608d2
      flags: 0
    RecentlyUsedScenePath-5:
      value: 224247031146467a1e1d0936031c6f031f14173e292b28392e265200e1e53a3df1a805e0ea2f333d3a0be032012d4e31f71d4918ff061f07100df4011fbf455d04cb11d103
      flags: 0
    RecentlyUsedScenePath-6:
      value: 224247031146467a1e1d0936031c6f031f14173e292b28392e265200e1e53a3df1a805e0ea2f333d3a0be032012d4e31f71d4918ff061f07100df4011fbf455310c90c8b0fc61608d2
      flags: 0
    RecentlyUsedScenePath-7:
      value: 224247031146467a1e1d0936031c6f031f14173e292b28392e265200e1e53a3df1a802ecf42e2c730d07fc2853701431fb1e10
      flags: 0
    RecentlyUsedScenePath-8:
      value: 224247031146467a1e1d0936031c6f031f14173e292b28392e265200e1e53a3df1a81fe7f32830722c0ce6281d
      flags: 0
    RecentlyUsedScenePath-9:
      value: 224247031146467a1e1d0936031c6f031f14173e292b28392e265200e1e53a3df1a805e0ea2f333d3a0be032012d4e31f71d4918ff061f07100df4011fbf445d04cb11d103
      flags: 0
    vcSharedLogLevel:
      value: 0d5e400f0650
      flags: 0
  m_VCAutomaticAdd: 1
  m_VCDebugCom: 0
  m_VCDebugCmd: 0
  m_VCDebugOut: 0
  m_SemanticMergeMode: 2
  m_VCShowFailedCheckout: 1
  m_VCOverwriteFailedCheckoutAssets: 1
  m_VCProjectOverlayIcons: 1
  m_VCHierarchyOverlayIcons: 1
  m_VCOtherOverlayIcons: 1
  m_VCAllowAsyncUpdate: 1
